{
  "project_info": {
    "project_number": "325931621111",
    "firebase_url": "https://snspushsample-1138e.firebaseio.com",
    "project_id": "snspushsample-1138e",
    "storage_bucket": "snspushsample-1138e.appspot.com"
  },
  "client": [
    {
      "client_info": {
        "mobilesdk_app_id": "1:325931621111:android:f24aac2b7341fa9d",
        "android_client_info": {
          "package_name": "co.com.ceiba.mobile.gcmpush"
        }
      },
      "oauth_client": [
        {
          "client_id": "325931621111-o277qpcma701se7hc5mnt2ct51rs14gj.apps.googleusercontent.com",
          "client_type": 1,
          "android_info": {
            "package_name": "co.com.ceiba.mobile.gcmpush",
            "certificate_hash": "1cc67713818443255558355000825f9084aa8a30"
          }
        },
        {
          "client_id": "325931621111-n6vo8avksil898ck2cfs9v9k7srs5dcv.apps.googleusercontent.com",
          "client_type": 3
        }
      ],
      "api_key": [
        {
          "current_key": "AIzaSyDj5Jr3i2rUIVApJ6gEtTCOArhYvMkiCq0"
        }
      ],
      "services": {
        "analytics_service": {
          "status": 1
        },
        "appinvite_service": {
          "status": 2,
          "other_platform_oauth_client": [
            {
              "client_id": "325931621111-n6vo8avksil898ck2cfs9v9k7srs5dcv.apps.googleusercontent.com",
              "client_type": 3
            }
          ]
        },
        "ads_service": {
          "status": 2
        }
      }
    }
  ],
  "configuration_version": "1"
}